EESchema Schematic File Version 4
EELAYER 30 0
EELAYER END
$Descr A4 11693 8268
encoding utf-8
Sheet 3 4
Title "Status LED"
Date "2020/06/03"
Rev "1.0"
Comp "EEE3088F project"
Comment1 ""
Comment2 ""
Comment3 ""
Comment4 ""
$EndDescr
$Comp
L EEE3088-project-rescue:OP1177ARMZ-R7-OP1177ARMZ-R7 IC4
U 1 1 60BB3DDC
P 2800 1550
AR Path="/60BB3DDC" Ref="IC4"  Part="1" 
AR Path="/60B8E368/60BB3DDC" Ref="IC4"  Part="1" 
F 0 "IC4" H 3350 1815 50  0000 C CNN
F 1 "OP1177ARMZ-R7" H 3350 1724 50  0000 C CNN
F 2 "Package_DFN_QFN:WDFN-8_2x2mm_P0.5mm" H 3750 1650 50  0001 L CNN
F 3 "https://componentsearchengine.com/Datasheets/1/OP1177ARMZ-R7.pdf" H 3750 1550 50  0001 L CNN
F 4 "Operational Amplifiers" H 3750 1450 50  0001 L CNN "Description"
F 5 "1.1" H 3750 1350 50  0001 L CNN "Height"
F 6 "Analog Devices" H 3750 1250 50  0001 L CNN "Manufacturer_Name"
F 7 "OP1177ARMZ-R7" H 3750 1150 50  0001 L CNN "Manufacturer_Part_Number"
F 8 "584-OP1177ARMZ-R7" H 3750 1050 50  0001 L CNN "Mouser Part Number"
F 9 "https://www.mouser.co.uk/ProductDetail/Analog-Devices/OP1177ARMZ-R7?qs=WIvQP4zGaniutb%252BpfkSepg%3D%3D" H 3750 950 50  0001 L CNN "Mouser Price/Stock"
F 10 "OP1177ARMZ-R7" H 3750 850 50  0001 L CNN "Arrow Part Number"
F 11 "https://www.arrow.com/en/products/op1177armz-r7/analog-devices" H 3750 750 50  0001 L CNN "Arrow Price/Stock"
	1    2800 1550
	1    0    0    -1  
$EndComp
$Comp
L EEE3088-project-rescue:OP1177ARMZ-R7-OP1177ARMZ-R7 IC5
U 1 1 60BB754B
P 2800 2400
AR Path="/60BB754B" Ref="IC5"  Part="1" 
AR Path="/60B8E368/60BB754B" Ref="IC5"  Part="1" 
F 0 "IC5" H 3350 2665 50  0000 C CNN
F 1 "OP1177ARMZ-R7" H 3350 2574 50  0000 C CNN
F 2 "Package_DFN_QFN:WDFN-8_2x2mm_P0.5mm" H 3750 2500 50  0001 L CNN
F 3 "https://componentsearchengine.com/Datasheets/1/OP1177ARMZ-R7.pdf" H 3750 2400 50  0001 L CNN
F 4 "Operational Amplifiers" H 3750 2300 50  0001 L CNN "Description"
F 5 "1.1" H 3750 2200 50  0001 L CNN "Height"
F 6 "Analog Devices" H 3750 2100 50  0001 L CNN "Manufacturer_Name"
F 7 "OP1177ARMZ-R7" H 3750 2000 50  0001 L CNN "Manufacturer_Part_Number"
F 8 "584-OP1177ARMZ-R7" H 3750 1900 50  0001 L CNN "Mouser Part Number"
F 9 "https://www.mouser.co.uk/ProductDetail/Analog-Devices/OP1177ARMZ-R7?qs=WIvQP4zGaniutb%252BpfkSepg%3D%3D" H 3750 1800 50  0001 L CNN "Mouser Price/Stock"
F 10 "OP1177ARMZ-R7" H 3750 1700 50  0001 L CNN "Arrow Part Number"
F 11 "https://www.arrow.com/en/products/op1177armz-r7/analog-devices" H 3750 1600 50  0001 L CNN "Arrow Price/Stock"
	1    2800 2400
	1    0    0    -1  
$EndComp
$Comp
L EEE3088-project-rescue:OP1177ARMZ-R7-OP1177ARMZ-R7 IC2
U 1 1 60BB824A
P 2750 3350
AR Path="/60BB824A" Ref="IC2"  Part="1" 
AR Path="/60B8E368/60BB824A" Ref="IC2"  Part="1" 
F 0 "IC2" H 3300 3615 50  0000 C CNN
F 1 "OP1177ARMZ-R7" H 3300 3524 50  0000 C CNN
F 2 "Package_DFN_QFN:WDFN-8_2x2mm_P0.5mm" H 3700 3450 50  0001 L CNN
F 3 "https://componentsearchengine.com/Datasheets/1/OP1177ARMZ-R7.pdf" H 3700 3350 50  0001 L CNN
F 4 "Operational Amplifiers" H 3700 3250 50  0001 L CNN "Description"
F 5 "1.1" H 3700 3150 50  0001 L CNN "Height"
F 6 "Analog Devices" H 3700 3050 50  0001 L CNN "Manufacturer_Name"
F 7 "OP1177ARMZ-R7" H 3700 2950 50  0001 L CNN "Manufacturer_Part_Number"
F 8 "584-OP1177ARMZ-R7" H 3700 2850 50  0001 L CNN "Mouser Part Number"
F 9 "https://www.mouser.co.uk/ProductDetail/Analog-Devices/OP1177ARMZ-R7?qs=WIvQP4zGaniutb%252BpfkSepg%3D%3D" H 3700 2750 50  0001 L CNN "Mouser Price/Stock"
F 10 "OP1177ARMZ-R7" H 3700 2650 50  0001 L CNN "Arrow Part Number"
F 11 "https://www.arrow.com/en/products/op1177armz-r7/analog-devices" H 3700 2550 50  0001 L CNN "Arrow Price/Stock"
	1    2750 3350
	1    0    0    -1  
$EndComp
$Comp
L EEE3088-project-rescue:OP1177ARMZ-R7-OP1177ARMZ-R7 IC3
U 1 1 60BB8D06
P 2750 4300
AR Path="/60BB8D06" Ref="IC3"  Part="1" 
AR Path="/60B8E368/60BB8D06" Ref="IC3"  Part="1" 
F 0 "IC3" H 3300 4565 50  0000 C CNN
F 1 "OP1177ARMZ-R7" H 3300 4474 50  0000 C CNN
F 2 "Package_DFN_QFN:WDFN-8_2x2mm_P0.5mm" H 3700 4400 50  0001 L CNN
F 3 "https://componentsearchengine.com/Datasheets/1/OP1177ARMZ-R7.pdf" H 3700 4300 50  0001 L CNN
F 4 "Operational Amplifiers" H 3700 4200 50  0001 L CNN "Description"
F 5 "1.1" H 3700 4100 50  0001 L CNN "Height"
F 6 "Analog Devices" H 3700 4000 50  0001 L CNN "Manufacturer_Name"
F 7 "OP1177ARMZ-R7" H 3700 3900 50  0001 L CNN "Manufacturer_Part_Number"
F 8 "584-OP1177ARMZ-R7" H 3700 3800 50  0001 L CNN "Mouser Part Number"
F 9 "https://www.mouser.co.uk/ProductDetail/Analog-Devices/OP1177ARMZ-R7?qs=WIvQP4zGaniutb%252BpfkSepg%3D%3D" H 3700 3700 50  0001 L CNN "Mouser Price/Stock"
F 10 "OP1177ARMZ-R7" H 3700 3600 50  0001 L CNN "Arrow Part Number"
F 11 "https://www.arrow.com/en/products/op1177armz-r7/analog-devices" H 3700 3500 50  0001 L CNN "Arrow Price/Stock"
	1    2750 4300
	1    0    0    -1  
$EndComp
$Comp
L Device:R R9
U 1 1 60BB9483
P 2350 1850
F 0 "R9" H 2420 1896 50  0000 L CNN
F 1 "1k" H 2420 1805 50  0000 L CNN
F 2 "Resistor_THT:R_Axial_DIN0204_L3.6mm_D1.6mm_P1.90mm_Vertical" V 2280 1850 50  0001 C CNN
F 3 "~" H 2350 1850 50  0001 C CNN
	1    2350 1850
	1    0    0    -1  
$EndComp
$Comp
L Device:R R10
U 1 1 60BBBE5A
P 2350 2650
F 0 "R10" H 2420 2696 50  0000 L CNN
F 1 "1k" H 2420 2605 50  0000 L CNN
F 2 "Resistor_THT:R_Axial_DIN0204_L3.6mm_D1.6mm_P1.90mm_Vertical" V 2280 2650 50  0001 C CNN
F 3 "~" H 2350 2650 50  0001 C CNN
	1    2350 2650
	1    0    0    -1  
$EndComp
$Comp
L Device:R R11
U 1 1 60BBCFEA
P 2350 3600
F 0 "R11" H 2420 3646 50  0000 L CNN
F 1 "1k" H 2420 3555 50  0000 L CNN
F 2 "Resistor_THT:R_Axial_DIN0204_L3.6mm_D1.6mm_P1.90mm_Vertical" V 2280 3600 50  0001 C CNN
F 3 "~" H 2350 3600 50  0001 C CNN
	1    2350 3600
	1    0    0    -1  
$EndComp
$Comp
L Device:R R12
U 1 1 60BBD4BE
P 2350 4550
F 0 "R12" H 2420 4596 50  0000 L CNN
F 1 "1k" H 2420 4505 50  0000 L CNN
F 2 "Resistor_THT:R_Axial_DIN0204_L3.6mm_D1.6mm_P1.90mm_Vertical" V 2280 4550 50  0001 C CNN
F 3 "~" H 2350 4550 50  0001 C CNN
	1    2350 4550
	1    0    0    -1  
$EndComp
Wire Wire Line
	2800 1650 2350 1650
Wire Wire Line
	2350 1650 2350 1700
Wire Wire Line
	2350 2000 2350 2500
Wire Wire Line
	2350 2800 2350 3450
Wire Wire Line
	2350 3750 2350 4400
Wire Wire Line
	2800 2500 2350 2500
Connection ~ 2350 2500
Connection ~ 2350 3450
Wire Wire Line
	2350 3450 2750 3450
Wire Wire Line
	2750 4400 2350 4400
Connection ~ 2350 4400
$Comp
L Device:R R13
U 1 1 60BBE7B9
P 4150 1750
F 0 "R13" V 3943 1750 50  0000 C CNN
F 1 "500" V 4034 1750 50  0000 C CNN
F 2 "Resistor_THT:R_Axial_DIN0204_L3.6mm_D1.6mm_P1.90mm_Vertical" V 4080 1750 50  0001 C CNN
F 3 "~" H 4150 1750 50  0001 C CNN
	1    4150 1750
	0    1    1    0   
$EndComp
$Comp
L Device:R R16
U 1 1 60BBF10C
P 4200 2600
F 0 "R16" V 4407 2600 50  0000 C CNN
F 1 "500" V 4316 2600 50  0000 C CNN
F 2 "Resistor_THT:R_Axial_DIN0204_L3.6mm_D1.6mm_P1.90mm_Vertical" V 4130 2600 50  0001 C CNN
F 3 "~" H 4200 2600 50  0001 C CNN
	1    4200 2600
	0    -1   -1   0   
$EndComp
$Comp
L Device:R R14
U 1 1 60BBF27C
P 4150 3550
F 0 "R14" V 4357 3550 50  0000 C CNN
F 1 "500" V 4266 3550 50  0000 C CNN
F 2 "Resistor_THT:R_Axial_DIN0204_L3.6mm_D1.6mm_P1.90mm_Vertical" V 4080 3550 50  0001 C CNN
F 3 "~" H 4150 3550 50  0001 C CNN
	1    4150 3550
	0    -1   -1   0   
$EndComp
$Comp
L Device:R R15
U 1 1 60BBF787
P 4150 4500
F 0 "R15" V 4357 4500 50  0000 C CNN
F 1 "500" V 4266 4500 50  0000 C CNN
F 2 "Resistor_THT:R_Axial_DIN0204_L3.6mm_D1.6mm_P1.90mm_Vertical" V 4080 4500 50  0001 C CNN
F 3 "~" H 4150 4500 50  0001 C CNN
	1    4150 4500
	0    -1   -1   0   
$EndComp
$Comp
L Device:LED D4
U 1 1 60BC0ECE
P 4600 1750
F 0 "D4" H 4593 1495 50  0000 C CNN
F 1 "LED" H 4593 1586 50  0000 C CNN
F 2 "LED_THT:LED_D2.0mm_W4.0mm_H2.8mm_FlatTop" H 4600 1750 50  0001 C CNN
F 3 "~" H 4600 1750 50  0001 C CNN
	1    4600 1750
	-1   0    0    1   
$EndComp
$Comp
L Device:LED D5
U 1 1 60BC2120
P 4650 2600
F 0 "D5" H 4643 2816 50  0000 C CNN
F 1 "LED" H 4643 2725 50  0000 C CNN
F 2 "LED_THT:LED_D2.0mm_W4.0mm_H2.8mm_FlatTop" H 4650 2600 50  0001 C CNN
F 3 "~" H 4650 2600 50  0001 C CNN
	1    4650 2600
	-1   0    0    1   
$EndComp
$Comp
L Device:LED D6
U 1 1 60BC2D75
P 4650 3550
F 0 "D6" H 4643 3295 50  0000 C CNN
F 1 "LED" H 4643 3386 50  0000 C CNN
F 2 "LED_THT:LED_D2.0mm_W4.0mm_H2.8mm_FlatTop" H 4650 3550 50  0001 C CNN
F 3 "~" H 4650 3550 50  0001 C CNN
	1    4650 3550
	-1   0    0    1   
$EndComp
$Comp
L Device:LED D7
U 1 1 60BC394D
P 4650 4500
F 0 "D7" H 4643 4245 50  0000 C CNN
F 1 "LED" H 4643 4336 50  0000 C CNN
F 2 "LED_THT:LED_D2.0mm_W4.0mm_H2.8mm_FlatTop" H 4650 4500 50  0001 C CNN
F 3 "~" H 4650 4500 50  0001 C CNN
	1    4650 4500
	-1   0    0    1   
$EndComp
Wire Wire Line
	3900 1750 4000 1750
Wire Wire Line
	4300 1750 4450 1750
Wire Wire Line
	3900 2600 4050 2600
Wire Wire Line
	4350 2600 4500 2600
Wire Wire Line
	3850 3550 4000 3550
Wire Wire Line
	4300 3550 4500 3550
Wire Wire Line
	3850 4500 4000 4500
Wire Wire Line
	4300 4500 4500 4500
Wire Wire Line
	4750 1750 4800 1750
Wire Wire Line
	4800 1750 4800 2600
Wire Wire Line
	4800 2600 4800 3550
Connection ~ 4800 2600
Wire Wire Line
	4800 3550 4800 4500
Connection ~ 4800 3550
Wire Wire Line
	4800 4500 4800 4950
Connection ~ 4800 4500
Wire Wire Line
	2100 1750 2800 1750
Wire Wire Line
	2800 2600 2100 2600
Wire Wire Line
	2750 3550 2100 3550
Wire Wire Line
	2750 4500 2100 4500
Wire Wire Line
	2350 4700 2350 4950
Wire Wire Line
	3900 1650 4000 1650
Wire Wire Line
	4000 1650 4000 1150
Wire Wire Line
	4000 1150 2650 1150
Wire Wire Line
	2350 1150 2350 1650
Wire Wire Line
	2350 4950 2900 4950
Connection ~ 2350 1650
Wire Wire Line
	2650 1150 2650 2100
Wire Wire Line
	2650 2100 4000 2100
Wire Wire Line
	4000 2100 4000 2500
Wire Wire Line
	4000 2500 3900 2500
Connection ~ 2650 1150
Wire Wire Line
	2650 1150 2450 1150
Wire Wire Line
	2650 2100 2650 3050
Wire Wire Line
	2650 3050 3900 3050
Wire Wire Line
	3900 3050 3900 3450
Wire Wire Line
	3900 3450 3850 3450
Connection ~ 2650 2100
Wire Wire Line
	2650 3050 2650 3950
Wire Wire Line
	2650 3950 3900 3950
Wire Wire Line
	3900 3950 3900 4400
Wire Wire Line
	3900 4400 3850 4400
Connection ~ 2650 3050
$Comp
L Device:Q_PNP_BCE Q2
U 1 1 60BCE49C
P 6250 3050
F 0 "Q2" H 6440 3096 50  0000 L CNN
F 1 "Q_PNP_BCE" H 6440 3005 50  0000 L CNN
F 2 "Package_TO_SOT_THT:SIPAK_Vertical" H 6450 3150 50  0001 C CNN
F 3 "~" H 6250 3050 50  0001 C CNN
	1    6250 3050
	1    0    0    -1  
$EndComp
$Comp
L Device:R R17
U 1 1 60BCEEF5
P 6350 2450
F 0 "R17" H 6420 2496 50  0000 L CNN
F 1 "50" H 6420 2405 50  0000 L CNN
F 2 "Resistor_THT:R_Axial_DIN0204_L3.6mm_D1.6mm_P1.90mm_Vertical" V 6280 2450 50  0001 C CNN
F 3 "~" H 6350 2450 50  0001 C CNN
	1    6350 2450
	1    0    0    -1  
$EndComp
$Comp
L Device:R R19
U 1 1 60BCF857
P 6750 2700
F 0 "R19" V 6543 2700 50  0000 C CNN
F 1 "150" V 6634 2700 50  0000 C CNN
F 2 "Resistor_THT:R_Axial_DIN0204_L3.6mm_D1.6mm_P1.90mm_Vertical" V 6680 2700 50  0001 C CNN
F 3 "~" H 6750 2700 50  0001 C CNN
	1    6750 2700
	0    1    1    0   
$EndComp
$Comp
L Device:R R18
U 1 1 60BD03A1
P 6350 3850
F 0 "R18" H 6420 3896 50  0000 L CNN
F 1 "100" H 6420 3805 50  0000 L CNN
F 2 "Resistor_THT:R_Axial_DIN0204_L3.6mm_D1.6mm_P1.90mm_Vertical" V 6280 3850 50  0001 C CNN
F 3 "~" H 6350 3850 50  0001 C CNN
	1    6350 3850
	1    0    0    -1  
$EndComp
$Comp
L Device:LED D8
U 1 1 60BD0D24
P 6350 3500
F 0 "D8" V 6297 3578 50  0000 L CNN
F 1 "LED" V 6388 3578 50  0000 L CNN
F 2 "LED_THT:LED_D2.0mm_W4.0mm_H2.8mm_FlatTop" H 6350 3500 50  0001 C CNN
F 3 "~" H 6350 3500 50  0001 C CNN
	1    6350 3500
	0    1    1    0   
$EndComp
$Comp
L Device:LED D9
U 1 1 60BD1A35
P 7100 3050
F 0 "D9" V 7139 2933 50  0000 R CNN
F 1 "LED" V 7048 2933 50  0000 R CNN
F 2 "LED_THT:LED_D2.0mm_W4.0mm_H2.8mm_FlatTop" H 7100 3050 50  0001 C CNN
F 3 "~" H 7100 3050 50  0001 C CNN
	1    7100 3050
	0    -1   -1   0   
$EndComp
Wire Wire Line
	6350 2600 6350 2700
Wire Wire Line
	6600 2700 6350 2700
Connection ~ 6350 2700
Wire Wire Line
	6350 2700 6350 2850
Wire Wire Line
	6900 2700 7100 2700
Wire Wire Line
	7100 2700 7100 2900
Wire Wire Line
	6350 3250 6350 3350
Wire Wire Line
	6350 3650 6350 3700
Wire Wire Line
	7100 3200 7100 4250
Wire Wire Line
	7100 4250 6750 4250
Wire Wire Line
	6350 4250 6350 4000
$Comp
L EEE3088-project-rescue:OP1177ARMZ-R7-OP1177ARMZ-R7 IC6
U 1 1 60BD8409
P 8100 3200
AR Path="/60BD8409" Ref="IC6"  Part="1" 
AR Path="/60B8E368/60BD8409" Ref="IC6"  Part="1" 
F 0 "IC6" H 8650 3465 50  0000 C CNN
F 1 "OP1177ARMZ-R7" H 8650 3374 50  0000 C CNN
F 2 "Package_DFN_QFN:WDFN-8_2x2mm_P0.5mm" H 9050 3300 50  0001 L CNN
F 3 "https://componentsearchengine.com/Datasheets/1/OP1177ARMZ-R7.pdf" H 9050 3200 50  0001 L CNN
F 4 "Operational Amplifiers" H 9050 3100 50  0001 L CNN "Description"
F 5 "1.1" H 9050 3000 50  0001 L CNN "Height"
F 6 "Analog Devices" H 9050 2900 50  0001 L CNN "Manufacturer_Name"
F 7 "OP1177ARMZ-R7" H 9050 2800 50  0001 L CNN "Manufacturer_Part_Number"
F 8 "584-OP1177ARMZ-R7" H 9050 2700 50  0001 L CNN "Mouser Part Number"
F 9 "https://www.mouser.co.uk/ProductDetail/Analog-Devices/OP1177ARMZ-R7?qs=WIvQP4zGaniutb%252BpfkSepg%3D%3D" H 9050 2600 50  0001 L CNN "Mouser Price/Stock"
F 10 "OP1177ARMZ-R7" H 9050 2500 50  0001 L CNN "Arrow Part Number"
F 11 "https://www.arrow.com/en/products/op1177armz-r7/analog-devices" H 9050 2400 50  0001 L CNN "Arrow Price/Stock"
	1    8100 3200
	1    0    0    -1  
$EndComp
$Comp
L Device:R R20
U 1 1 60BDA142
P 7600 3150
F 0 "R20" H 7670 3196 50  0000 L CNN
F 1 "47" H 7670 3105 50  0000 L CNN
F 2 "Resistor_THT:R_Axial_DIN0204_L3.6mm_D1.6mm_P1.90mm_Vertical" V 7530 3150 50  0001 C CNN
F 3 "~" H 7600 3150 50  0001 C CNN
	1    7600 3150
	1    0    0    -1  
$EndComp
$Comp
L Device:R R22
U 1 1 60BDA9B4
P 7850 2700
F 0 "R22" H 7920 2746 50  0000 L CNN
F 1 "1k" H 7920 2655 50  0000 L CNN
F 2 "Resistor_THT:R_Axial_DIN0204_L3.6mm_D1.6mm_P1.90mm_Vertical" V 7780 2700 50  0001 C CNN
F 3 "~" H 7850 2700 50  0001 C CNN
	1    7850 2700
	1    0    0    -1  
$EndComp
$Comp
L Device:R R21
U 1 1 60BDB509
P 7800 3600
F 0 "R21" H 7870 3646 50  0000 L CNN
F 1 "10" H 7870 3555 50  0000 L CNN
F 2 "Resistor_THT:R_Axial_DIN0204_L3.6mm_D1.6mm_P1.90mm_Vertical" V 7730 3600 50  0001 C CNN
F 3 "~" H 7800 3600 50  0001 C CNN
	1    7800 3600
	1    0    0    -1  
$EndComp
$Comp
L Device:R R23
U 1 1 60BDDD84
P 9550 3600
F 0 "R23" H 9620 3646 50  0000 L CNN
F 1 "100" H 9620 3555 50  0000 L CNN
F 2 "Resistor_THT:R_Axial_DIN0204_L3.6mm_D1.6mm_P1.90mm_Vertical" V 9480 3600 50  0001 C CNN
F 3 "~" H 9550 3600 50  0001 C CNN
	1    9550 3600
	1    0    0    -1  
$EndComp
$Comp
L Device:R R24
U 1 1 60BDED93
P 9550 4000
F 0 "R24" H 9620 4046 50  0000 L CNN
F 1 "100" H 9620 3955 50  0000 L CNN
F 2 "Resistor_THT:R_Axial_DIN0204_L3.6mm_D1.6mm_P1.90mm_Vertical" V 9480 4000 50  0001 C CNN
F 3 "~" H 9550 4000 50  0001 C CNN
	1    9550 4000
	1    0    0    -1  
$EndComp
$Comp
L Device:Q_NPN_BCE Q3
U 1 1 60BE298D
P 9850 3800
F 0 "Q3" H 10041 3846 50  0000 L CNN
F 1 "Q_NPN_BCE" H 10041 3755 50  0000 L CNN
F 2 "Package_TO_SOT_THT:SIPAK_Vertical" H 10050 3900 50  0001 C CNN
F 3 "~" H 9850 3800 50  0001 C CNN
	1    9850 3800
	1    0    0    -1  
$EndComp
$Comp
L Device:LED D10
U 1 1 60BE3C22
P 9950 3250
F 0 "D10" V 9989 3133 50  0000 R CNN
F 1 "LED" V 9898 3133 50  0000 R CNN
F 2 "LED_THT:LED_D2.0mm_W4.0mm_H2.8mm_FlatTop" H 9950 3250 50  0001 C CNN
F 3 "~" H 9950 3250 50  0001 C CNN
	1    9950 3250
	0    -1   -1   0   
$EndComp
$Comp
L Device:R R25
U 1 1 60BE4A83
P 9950 2750
F 0 "R25" H 10020 2796 50  0000 L CNN
F 1 "200" H 10020 2705 50  0000 L CNN
F 2 "Resistor_THT:R_Axial_DIN0204_L3.6mm_D1.6mm_P1.90mm_Vertical" V 9880 2750 50  0001 C CNN
F 3 "~" H 9950 2750 50  0001 C CNN
	1    9950 2750
	1    0    0    -1  
$EndComp
Wire Wire Line
	7800 3400 7800 3450
Wire Wire Line
	8100 3300 7700 3300
Wire Wire Line
	7700 3300 7700 3400
Wire Wire Line
	7700 3400 7650 3400
Wire Wire Line
	7600 3400 7600 3300
Wire Wire Line
	7850 3400 7850 2850
Wire Wire Line
	7800 3400 7850 3400
Connection ~ 7850 3400
Wire Wire Line
	7850 3400 8100 3400
Wire Wire Line
	7600 2550 7700 2550
Wire Wire Line
	7600 2550 7600 3000
Wire Wire Line
	7700 2550 7700 2400
Connection ~ 7700 2550
Wire Wire Line
	7700 2550 7850 2550
Wire Wire Line
	9200 3400 9550 3400
Wire Wire Line
	9550 3400 9550 3450
Wire Wire Line
	9550 3750 9550 3800
Wire Wire Line
	9550 3800 9650 3800
Connection ~ 9550 3800
Wire Wire Line
	9550 3800 9550 3850
Wire Wire Line
	9950 2900 9950 3100
Wire Wire Line
	9950 3400 9950 3600
Wire Wire Line
	9550 4150 9550 4650
Wire Wire Line
	9950 4650 9950 4000
Wire Wire Line
	9750 4650 9750 4750
Wire Wire Line
	9550 4650 9750 4650
Connection ~ 9750 4650
Wire Wire Line
	9750 4650 9950 4650
Text Notes 5800 3450 0    50   ~ 0
Anticlockwise\n
Text Notes 7150 2950 0    50   ~ 0
Clockwise\n
Text Notes 6500 2200 0    50   ~ 10
Direction LED
Text Notes 8400 2650 0    50   ~ 10
Current Warning\n
Text Notes 10050 3100 0    50   ~ 10
Warning\n
Text Notes 3150 1000 0    50   ~ 10
Speed LED 
Text Notes 4950 1750 0    50   ~ 10
Speed 4\n
Text Notes 5000 2600 0    50   ~ 10
Speed 3\n
Text Notes 5050 3550 0    50   ~ 10
Speed 2\n
Text Notes 5050 4500 0    50   ~ 10
Speed 1\n
Text GLabel 2100 1750 0    50   Input ~ 10
Vmotor
Text GLabel 2100 2600 0    50   Input ~ 10
Vmotor
Text GLabel 2100 3550 0    50   Input ~ 10
Vmotor
Text GLabel 2100 4500 0    50   Input ~ 10
Vmotor
Text GLabel 6050 3050 0    50   Input ~ 10
Vmotor
$Comp
L power:+12V #PWR019
U 1 1 60C03344
P 6350 2300
F 0 "#PWR019" H 6350 2150 50  0001 C CNN
F 1 "+12V" H 6365 2473 50  0000 C CNN
F 2 "" H 6350 2300 50  0001 C CNN
F 3 "" H 6350 2300 50  0001 C CNN
	1    6350 2300
	1    0    0    -1  
$EndComp
$Comp
L power:+12V #PWR026
U 1 1 60C037AF
P 9950 2600
F 0 "#PWR026" H 9950 2450 50  0001 C CNN
F 1 "+12V" H 9965 2773 50  0000 C CNN
F 2 "" H 9950 2600 50  0001 C CNN
F 3 "" H 9950 2600 50  0001 C CNN
	1    9950 2600
	1    0    0    -1  
$EndComp
Wire Wire Line
	2450 1150 2450 1000
Connection ~ 2450 1150
Wire Wire Line
	2450 1150 2350 1150
$Comp
L power:+12V #PWR013
U 1 1 60C05C1F
P 2450 1000
F 0 "#PWR013" H 2450 850 50  0001 C CNN
F 1 "+12V" H 2465 1173 50  0000 C CNN
F 2 "" H 2450 1000 50  0001 C CNN
F 3 "" H 2450 1000 50  0001 C CNN
	1    2450 1000
	1    0    0    -1  
$EndComp
$Comp
L power:GND #PWR022
U 1 1 60C0631D
P 7800 3750
F 0 "#PWR022" H 7800 3500 50  0001 C CNN
F 1 "GND" H 7805 3577 50  0000 C CNN
F 2 "" H 7800 3750 50  0001 C CNN
F 3 "" H 7800 3750 50  0001 C CNN
	1    7800 3750
	1    0    0    -1  
$EndComp
$Comp
L power:GND #PWR025
U 1 1 60C07B10
P 9750 4750
F 0 "#PWR025" H 9750 4500 50  0001 C CNN
F 1 "GND" H 9755 4577 50  0000 C CNN
F 2 "" H 9750 4750 50  0001 C CNN
F 3 "" H 9750 4750 50  0001 C CNN
	1    9750 4750
	1    0    0    -1  
$EndComp
Wire Wire Line
	2900 4950 2900 5100
Wire Wire Line
	2900 5100 2950 5100
Connection ~ 2900 4950
Wire Wire Line
	2900 4950 4800 4950
$Comp
L power:GND #PWR020
U 1 1 60C0A20B
P 6750 4250
F 0 "#PWR020" H 6750 4000 50  0001 C CNN
F 1 "GND" H 6755 4077 50  0000 C CNN
F 2 "" H 6750 4250 50  0001 C CNN
F 3 "" H 6750 4250 50  0001 C CNN
	1    6750 4250
	1    0    0    -1  
$EndComp
Connection ~ 6750 4250
Wire Wire Line
	6750 4250 6350 4250
$Comp
L power:GND #PWR018
U 1 1 60C0A4F4
P 2950 5100
F 0 "#PWR018" H 2950 4850 50  0001 C CNN
F 1 "GND" H 2955 4927 50  0000 C CNN
F 2 "" H 2950 5100 50  0001 C CNN
F 3 "" H 2950 5100 50  0001 C CNN
	1    2950 5100
	1    0    0    -1  
$EndComp
$Comp
L power:GND #PWR021
U 1 1 60C0AE2D
P 7650 3400
F 0 "#PWR021" H 7650 3150 50  0001 C CNN
F 1 "GND" H 7655 3227 50  0000 C CNN
F 2 "" H 7650 3400 50  0001 C CNN
F 3 "" H 7650 3400 50  0001 C CNN
	1    7650 3400
	1    0    0    -1  
$EndComp
Connection ~ 7650 3400
Wire Wire Line
	7650 3400 7600 3400
$Comp
L power:GND #PWR016
U 1 1 60C0B044
P 2800 1850
F 0 "#PWR016" H 2800 1600 50  0001 C CNN
F 1 "GND" H 2805 1677 50  0000 C CNN
F 2 "" H 2800 1850 50  0001 C CNN
F 3 "" H 2800 1850 50  0001 C CNN
	1    2800 1850
	1    0    0    -1  
$EndComp
$Comp
L power:GND #PWR015
U 1 1 60C0C3FC
P 2750 4600
F 0 "#PWR015" H 2750 4350 50  0001 C CNN
F 1 "GND" H 2755 4427 50  0000 C CNN
F 2 "" H 2750 4600 50  0001 C CNN
F 3 "" H 2750 4600 50  0001 C CNN
	1    2750 4600
	1    0    0    -1  
$EndComp
$Comp
L power:GND #PWR014
U 1 1 60C0C927
P 2750 3650
F 0 "#PWR014" H 2750 3400 50  0001 C CNN
F 1 "GND" H 2755 3477 50  0000 C CNN
F 2 "" H 2750 3650 50  0001 C CNN
F 3 "" H 2750 3650 50  0001 C CNN
	1    2750 3650
	1    0    0    -1  
$EndComp
$Comp
L power:GND #PWR017
U 1 1 60C0CC0E
P 2800 2700
F 0 "#PWR017" H 2800 2450 50  0001 C CNN
F 1 "GND" H 2805 2527 50  0000 C CNN
F 2 "" H 2800 2700 50  0001 C CNN
F 3 "" H 2800 2700 50  0001 C CNN
	1    2800 2700
	1    0    0    -1  
$EndComp
$Comp
L power:GND #PWR023
U 1 1 60C0DBBF
P 8100 3500
F 0 "#PWR023" H 8100 3250 50  0001 C CNN
F 1 "GND" H 8105 3327 50  0000 C CNN
F 2 "" H 8100 3500 50  0001 C CNN
F 3 "" H 8100 3500 50  0001 C CNN
	1    8100 3500
	1    0    0    -1  
$EndComp
$Comp
L power:+12V #PWR024
U 1 1 60C0DEC8
P 9200 3300
F 0 "#PWR024" H 9200 3150 50  0001 C CNN
F 1 "+12V" V 9215 3428 50  0000 L CNN
F 2 "" H 9200 3300 50  0001 C CNN
F 3 "" H 9200 3300 50  0001 C CNN
	1    9200 3300
	0    1    1    0   
$EndComp
Text HLabel 7700 2400 0    50   Input ~ 0
I_short
NoConn ~ 8100 3200
NoConn ~ 9200 3200
NoConn ~ 9200 3500
NoConn ~ 3900 1550
NoConn ~ 3900 1850
NoConn ~ 2800 1550
NoConn ~ 3900 2400
NoConn ~ 3900 2700
NoConn ~ 2800 2400
NoConn ~ 3850 3350
NoConn ~ 3850 3650
NoConn ~ 2750 3350
NoConn ~ 3850 4300
NoConn ~ 3850 4600
NoConn ~ 2750 4300
$EndSCHEMATC
