EESchema Schematic File Version 4
EELAYER 30 0
EELAYER END
$Descr A4 11693 8268
encoding utf-8
Sheet 2 4
Title "PSU"
Date "2021/06/03"
Rev "1.0"
Comp "EEE3088F Project"
Comment1 ""
Comment2 ""
Comment3 ""
Comment4 ""
$EndDescr
$Comp
L Timer:NE555 U1
U 1 1 60B937C5
P 2550 2800
F 0 "U1" H 2550 3381 50  0000 C CNN
F 1 "NE555" H 2550 3290 50  0000 C CNN
F 2 "Package_DFN_QFN:WDFN-8_2x2mm_P0.5mm" H 2550 2800 50  0001 C CNN
F 3 "http://www.ti.com/lit/ds/symlink/ne555.pdf" H 2550 2800 50  0001 C CNN
	1    2550 2800
	1    0    0    -1  
$EndComp
$Comp
L Device:R R1
U 1 1 60B95AFC
P 1100 2550
F 0 "R1" H 1170 2596 50  0000 L CNN
F 1 "15k" H 1170 2505 50  0000 L CNN
F 2 "Resistor_THT:R_Axial_DIN0204_L3.6mm_D1.6mm_P1.90mm_Vertical" V 1030 2550 50  0001 C CNN
F 3 "~" H 1100 2550 50  0001 C CNN
	1    1100 2550
	1    0    0    -1  
$EndComp
$Comp
L Device:R R2
U 1 1 60B96AAE
P 1100 3000
F 0 "R2" H 1170 3046 50  0000 L CNN
F 1 "27k" H 1170 2955 50  0000 L CNN
F 2 "Resistor_THT:R_Axial_DIN0204_L3.6mm_D1.6mm_P1.90mm_Vertical" V 1030 3000 50  0001 C CNN
F 3 "~" H 1100 3000 50  0001 C CNN
	1    1100 3000
	1    0    0    -1  
$EndComp
$Comp
L Device:C C1
U 1 1 60B972F9
P 1100 3400
F 0 "C1" H 1215 3446 50  0000 L CNN
F 1 "0.01u" H 1215 3355 50  0000 L CNN
F 2 "Capacitor_THT:CP_Radial_D4.0mm_P1.50mm" H 1138 3250 50  0001 C CNN
F 3 "~" H 1100 3400 50  0001 C CNN
	1    1100 3400
	1    0    0    -1  
$EndComp
Wire Wire Line
	3050 2800 3200 2800
Wire Wire Line
	3200 2100 1750 2100
Wire Wire Line
	1750 2100 1750 2750
Wire Wire Line
	1750 2750 1100 2750
Wire Wire Line
	1100 2750 1100 2700
Wire Wire Line
	1100 2850 1100 2750
Connection ~ 1100 2750
Wire Wire Line
	3050 3000 3200 3000
Wire Wire Line
	1100 3200 1100 3150
Wire Wire Line
	1100 3250 1100 3200
Connection ~ 1100 3200
Wire Wire Line
	2050 2600 1850 2600
Wire Wire Line
	1850 2600 1850 3100
$Comp
L Device:C C2
U 1 1 60B9A3B7
P 1950 3100
F 0 "C2" H 2065 3146 50  0000 L CNN
F 1 "0.01u" H 2065 3055 50  0000 L CNN
F 2 "Capacitor_THT:CP_Radial_D4.0mm_P1.50mm" H 1988 2950 50  0001 C CNN
F 3 "~" H 1950 3100 50  0001 C CNN
	1    1950 3100
	1    0    0    -1  
$EndComp
Wire Wire Line
	2050 2800 1950 2800
Wire Wire Line
	2550 2400 2550 1950
Wire Wire Line
	1100 1950 1100 2400
Wire Wire Line
	2050 3000 1700 3000
Wire Wire Line
	1700 3000 1700 1950
Connection ~ 1700 1950
Wire Wire Line
	1700 1950 1100 1950
$Comp
L EEE3088-project-rescue:DRV8313PWP-DRV8313PWP IC1
U 1 1 60C3B2F6
P 7250 2250
AR Path="/60C3B2F6" Ref="IC1"  Part="1" 
AR Path="/60B8E1BB/60C3B2F6" Ref="IC1"  Part="1" 
F 0 "IC1" H 7950 2515 50  0000 C CNN
F 1 "DRV8313PWP" H 7950 2424 50  0000 C CNN
F 2 "Package_DFN_QFN:QFN-28-1EP_3x6mm_P0.5mm_EP1.7x4.75mm" H 8500 2350 50  0001 L CNN
F 3 "http://www.ti.com/lit/gpn/drv8313" H 8500 2250 50  0001 L CNN
F 4 "2.5A Three Phase Brushless DC Motor Driver (PWM Ctrl) " H 8500 2150 50  0001 L CNN "Description"
F 5 "1.2" H 8500 2050 50  0001 L CNN "Height"
F 6 "Texas Instruments" H 8500 1950 50  0001 L CNN "Manufacturer_Name"
F 7 "DRV8313PWP" H 8500 1850 50  0001 L CNN "Manufacturer_Part_Number"
F 8 "595-DRV8313PWP" H 8500 1750 50  0001 L CNN "Mouser Part Number"
F 9 "https://www.mouser.co.uk/ProductDetail/Texas-Instruments/DRV8313PWP?qs=aQEsdMNF%2FMxhZX%2FpCdLUTw%3D%3D" H 8500 1650 50  0001 L CNN "Mouser Price/Stock"
F 10 "DRV8313PWP" H 8500 1550 50  0001 L CNN "Arrow Part Number"
F 11 "https://www.arrow.com/en/products/drv8313pwp/texas-instruments" H 8500 1450 50  0001 L CNN "Arrow Price/Stock"
	1    7250 2250
	1    0    0    -1  
$EndComp
Wire Wire Line
	2550 1950 1700 1950
Text GLabel 5300 2600 2    50   Input ~ 10
Vmotor
Text HLabel 4700 1950 2    50   Input ~ 0
Vsupply
Wire Wire Line
	5100 3500 4900 3500
Connection ~ 5100 3500
Wire Wire Line
	5100 3400 5100 3500
Wire Wire Line
	4700 3500 4700 3400
Wire Wire Line
	5300 3500 5100 3500
Wire Wire Line
	5300 3000 5300 3500
Wire Wire Line
	5100 3050 5100 3100
Connection ~ 5100 3050
Wire Wire Line
	4700 3050 4700 3100
Connection ~ 4700 3050
Wire Wire Line
	4700 3050 5100 3050
Wire Wire Line
	5100 2950 5100 3050
Wire Wire Line
	5150 2950 5100 2950
Wire Wire Line
	5300 2600 5300 2700
Wire Wire Line
	4700 2600 5300 2600
Wire Wire Line
	4700 3000 4700 3050
Wire Wire Line
	4700 2600 4700 2700
$Comp
L Device:C C6
U 1 1 60BACB96
P 5100 3250
F 0 "C6" H 5215 3296 50  0000 L CNN
F 1 "0.1u" H 5215 3205 50  0000 L CNN
F 2 "Capacitor_THT:CP_Radial_D4.0mm_P1.50mm" H 5138 3100 50  0001 C CNN
F 3 "~" H 5100 3250 50  0001 C CNN
	1    5100 3250
	1    0    0    -1  
$EndComp
$Comp
L Triac_Thyristor:BT169B Q1
U 1 1 60BAB872
P 5300 2850
F 0 "Q1" H 5388 2896 50  0000 L CNN
F 1 "BT169B" H 5388 2805 50  0000 L CNN
F 2 "Package_TO_SOT_THT:TO-92_Inline" H 5400 2775 50  0001 L CIN
F 3 "https://media.digikey.com/pdf/Data%20Sheets/NXP%20PDFs/BT169_Series.pdf" H 5300 2850 50  0001 L CNN
	1    5300 2850
	1    0    0    -1  
$EndComp
$Comp
L Device:R R3
U 1 1 60BAA4D2
P 4700 3250
F 0 "R3" H 4770 3296 50  0000 L CNN
F 1 "16" H 4770 3205 50  0000 L CNN
F 2 "Resistor_THT:R_Axial_DIN0204_L3.6mm_D1.6mm_P1.90mm_Vertical" V 4630 3250 50  0001 C CNN
F 3 "~" H 4700 3250 50  0001 C CNN
	1    4700 3250
	1    0    0    -1  
$EndComp
$Comp
L Diode:BZX84Cxx D3
U 1 1 60BA91F3
P 4700 2850
F 0 "D3" V 4654 2929 50  0000 L CNN
F 1 "BZX84Cxx" V 4745 2929 50  0000 L CNN
F 2 "Diode_SMD:D_SOT-23_ANK" H 4700 2675 50  0001 C CNN
F 3 "https://diotec.com/tl_files/diotec/files/pdf/datasheets/bzx84c2v4.pdf" H 4700 2850 50  0001 C CNN
	1    4700 2850
	0    1    1    0   
$EndComp
Connection ~ 4450 1950
Wire Wire Line
	4450 1950 4700 1950
Wire Wire Line
	4450 1950 4450 2800
Wire Wire Line
	3350 1950 4450 1950
Wire Wire Line
	4050 2600 4050 2800
Wire Wire Line
	3850 2600 4050 2600
Connection ~ 3350 2600
Wire Wire Line
	3350 2250 3350 2600
Wire Wire Line
	3350 2600 3550 2600
$Comp
L Device:C C5
U 1 1 60B9F254
P 4450 2950
F 0 "C5" H 4565 2996 50  0000 L CNN
F 1 "470u" H 4565 2905 50  0000 L CNN
F 2 "Capacitor_THT:CP_Radial_D4.0mm_P1.50mm" H 4488 2800 50  0001 C CNN
F 3 "~" H 4450 2950 50  0001 C CNN
	1    4450 2950
	1    0    0    -1  
$EndComp
$Comp
L Device:C C4
U 1 1 60B9E9E2
P 4050 2950
F 0 "C4" H 4165 2996 50  0000 L CNN
F 1 "330u" H 4165 2905 50  0000 L CNN
F 2 "Capacitor_THT:CP_Radial_D4.0mm_P1.50mm" H 4088 2800 50  0001 C CNN
F 3 "~" H 4050 2950 50  0001 C CNN
	1    4050 2950
	1    0    0    -1  
$EndComp
$Comp
L Diode:1N4001 D2
U 1 1 60B9E190
P 3700 2600
F 0 "D2" H 3700 2384 50  0000 C CNN
F 1 "1N4001" H 3700 2475 50  0000 C CNN
F 2 "Diode_THT:D_DO-34_SOD68_P2.54mm_Vertical_AnodeUp" H 3700 2425 50  0001 C CNN
F 3 "http://www.vishay.com/docs/88503/1n4001.pdf" H 3700 2600 50  0001 C CNN
	1    3700 2600
	-1   0    0    1   
$EndComp
$Comp
L Diode:1N4001 D1
U 1 1 60B9D50F
P 3350 2100
F 0 "D1" V 3396 2021 50  0000 R CNN
F 1 "1N4001" V 3305 2021 50  0000 R CNN
F 2 "Diode_THT:D_DO-34_SOD68_P2.54mm_Vertical_AnodeUp" H 3350 1925 50  0001 C CNN
F 3 "http://www.vishay.com/docs/88503/1n4001.pdf" H 3350 2100 50  0001 C CNN
	1    3350 2100
	0    -1   -1   0   
$EndComp
$Comp
L Device:C C3
U 1 1 60B9C72B
P 3200 2600
F 0 "C3" V 2948 2600 50  0000 C CNN
F 1 "330u" V 3039 2600 50  0000 C CNN
F 2 "Capacitor_THT:CP_Radial_D4.0mm_P1.50mm" H 3238 2450 50  0001 C CNN
F 3 "~" H 3200 2600 50  0001 C CNN
	1    3200 2600
	0    1    1    0   
$EndComp
Wire Wire Line
	3350 1950 2550 1950
Connection ~ 3350 1950
Connection ~ 2550 1950
Wire Wire Line
	3200 2100 3200 2800
Wire Wire Line
	4050 2600 4700 2600
Connection ~ 4050 2600
Connection ~ 4700 2600
Wire Wire Line
	1100 3200 1850 3200
Wire Wire Line
	3200 3000 3200 3100
Wire Wire Line
	1850 3100 3200 3100
Connection ~ 1850 3100
Wire Wire Line
	1850 3100 1850 3200
Wire Wire Line
	1950 2800 1950 2950
Wire Wire Line
	2550 3550 1950 3550
Wire Wire Line
	2550 3200 2550 3550
Wire Wire Line
	1950 3250 1950 3550
Connection ~ 1950 3550
Wire Wire Line
	1950 3550 1100 3550
$Comp
L power:GND #PWR01
U 1 1 60C63299
P 1950 3550
F 0 "#PWR01" H 1950 3300 50  0001 C CNN
F 1 "GND" H 1955 3377 50  0000 C CNN
F 2 "" H 1950 3550 50  0001 C CNN
F 3 "" H 1950 3550 50  0001 C CNN
	1    1950 3550
	1    0    0    -1  
$EndComp
$Comp
L power:GND #PWR03
U 1 1 60C63748
P 4900 3500
F 0 "#PWR03" H 4900 3250 50  0001 C CNN
F 1 "GND" H 4905 3327 50  0000 C CNN
F 2 "" H 4900 3500 50  0001 C CNN
F 3 "" H 4900 3500 50  0001 C CNN
	1    4900 3500
	1    0    0    -1  
$EndComp
Connection ~ 4900 3500
Wire Wire Line
	4900 3500 4700 3500
Wire Wire Line
	4050 3250 4250 3250
Wire Wire Line
	4450 3250 4450 3100
Wire Wire Line
	4050 3100 4050 3250
$Comp
L power:GND #PWR02
U 1 1 60C667C8
P 4250 3250
F 0 "#PWR02" H 4250 3000 50  0001 C CNN
F 1 "GND" H 4255 3077 50  0000 C CNN
F 2 "" H 4250 3250 50  0001 C CNN
F 3 "" H 4250 3250 50  0001 C CNN
	1    4250 3250
	1    0    0    -1  
$EndComp
Connection ~ 4250 3250
Wire Wire Line
	4250 3250 4450 3250
Wire Wire Line
	7250 3350 7150 3350
$Comp
L Device:C C11
U 1 1 60C71D85
P 7050 2000
F 0 "C11" H 7165 2046 50  0000 L CNN
F 1 "0.1u" H 7165 1955 50  0000 L CNN
F 2 "Capacitor_THT:CP_Radial_D4.0mm_P1.50mm" H 7088 1850 50  0001 C CNN
F 3 "~" H 7050 2000 50  0001 C CNN
	1    7050 2000
	1    0    0    -1  
$EndComp
$Comp
L Device:C C9
U 1 1 60C7264D
P 6750 2000
F 0 "C9" H 6865 2046 50  0000 L CNN
F 1 "0.01u" H 6865 1955 50  0000 L CNN
F 2 "Capacitor_THT:CP_Radial_D4.0mm_P1.50mm" H 6788 1850 50  0001 C CNN
F 3 "~" H 6750 2000 50  0001 C CNN
	1    6750 2000
	1    0    0    -1  
$EndComp
Wire Wire Line
	7250 1850 7050 1850
Wire Wire Line
	7250 1850 7250 2250
Wire Wire Line
	7250 2350 7050 2350
Wire Wire Line
	7050 2350 7050 2150
Wire Wire Line
	6900 2450 6900 1850
Wire Wire Line
	6900 1850 6750 1850
Wire Wire Line
	6750 2150 6750 2550
Wire Wire Line
	6750 2550 7250 2550
Wire Wire Line
	6900 2450 7250 2450
Wire Wire Line
	7250 2750 7150 2750
Wire Wire Line
	7250 2850 7150 2850
$Comp
L power:GND #PWR010
U 1 1 60C85CA9
P 8650 2250
F 0 "#PWR010" H 8650 2000 50  0001 C CNN
F 1 "GND" V 8655 2122 50  0000 R CNN
F 2 "" H 8650 2250 50  0001 C CNN
F 3 "" H 8650 2250 50  0001 C CNN
	1    8650 2250
	0    -1   -1   0   
$EndComp
$Comp
L Device:C C10
U 1 1 60C8691E
P 6900 3400
F 0 "C10" H 7015 3446 50  0000 L CNN
F 1 "0.1u" H 7015 3355 50  0000 L CNN
F 2 "Capacitor_THT:CP_Radial_D4.0mm_P1.50mm" H 6938 3250 50  0001 C CNN
F 3 "~" H 6900 3400 50  0001 C CNN
	1    6900 3400
	1    0    0    -1  
$EndComp
$Comp
L Device:C C8
U 1 1 60C885A6
P 6700 3400
F 0 "C8" H 6815 3446 50  0000 L CNN
F 1 "100u" H 6815 3355 50  0000 L CNN
F 2 "Capacitor_THT:CP_Radial_D4.0mm_P1.50mm" H 6738 3250 50  0001 C CNN
F 3 "~" H 6700 3400 50  0001 C CNN
	1    6700 3400
	1    0    0    -1  
$EndComp
Wire Wire Line
	6700 3250 6900 3250
Connection ~ 6900 3250
Wire Wire Line
	6900 3250 7250 3250
Wire Wire Line
	6700 3250 6700 3200
Connection ~ 6700 3250
$Comp
L power:GND #PWR05
U 1 1 60C8D399
P 6700 3550
F 0 "#PWR05" H 6700 3300 50  0001 C CNN
F 1 "GND" H 6705 3377 50  0000 C CNN
F 2 "" H 6700 3550 50  0001 C CNN
F 3 "" H 6700 3550 50  0001 C CNN
	1    6700 3550
	1    0    0    -1  
$EndComp
$Comp
L power:GND #PWR06
U 1 1 60C8DA82
P 6900 3550
F 0 "#PWR06" H 6900 3300 50  0001 C CNN
F 1 "GND" H 6905 3377 50  0000 C CNN
F 2 "" H 6900 3550 50  0001 C CNN
F 3 "" H 6900 3550 50  0001 C CNN
	1    6900 3550
	1    0    0    -1  
$EndComp
Wire Wire Line
	8650 2950 8750 2950
Wire Wire Line
	8750 2950 8750 3000
Wire Wire Line
	8750 3050 8650 3050
$Comp
L Device:R R7
U 1 1 60C95C94
P 9200 3400
F 0 "R7" H 9270 3446 50  0000 L CNN
F 1 "10k" H 9270 3355 50  0000 L CNN
F 2 "Resistor_THT:R_Axial_DIN0204_L3.6mm_D1.6mm_P1.90mm_Vertical" V 9130 3400 50  0001 C CNN
F 3 "~" H 9200 3400 50  0001 C CNN
	1    9200 3400
	1    0    0    -1  
$EndComp
$Comp
L Device:C C12
U 1 1 60C965C4
P 9200 3750
F 0 "C12" H 9315 3796 50  0000 L CNN
F 1 "0.47u" H 9315 3705 50  0000 L CNN
F 2 "Capacitor_THT:CP_Radial_D4.0mm_P1.50mm" H 9238 3600 50  0001 C CNN
F 3 "~" H 9200 3750 50  0001 C CNN
	1    9200 3750
	1    0    0    -1  
$EndComp
Wire Wire Line
	8650 3550 8700 3550
Wire Wire Line
	9200 3600 9200 3550
Connection ~ 9200 3550
Wire Wire Line
	9200 3250 9350 3250
Connection ~ 9200 3250
$Comp
L power:GND #PWR012
U 1 1 60C9EA6F
P 9200 3900
F 0 "#PWR012" H 9200 3650 50  0001 C CNN
F 1 "GND" H 9205 3727 50  0000 C CNN
F 2 "" H 9200 3900 50  0001 C CNN
F 3 "" H 9200 3900 50  0001 C CNN
	1    9200 3900
	1    0    0    -1  
$EndComp
$Comp
L power:GND #PWR09
U 1 1 60C9EE2F
P 7950 4350
F 0 "#PWR09" H 7950 4100 50  0001 C CNN
F 1 "GND" H 7955 4177 50  0000 C CNN
F 2 "" H 7950 4350 50  0001 C CNN
F 3 "" H 7950 4350 50  0001 C CNN
	1    7950 4350
	1    0    0    -1  
$EndComp
Text HLabel 8650 2350 2    50   Input ~ 10
IN1
Text HLabel 8650 2450 2    50   Input ~ 10
EN1
Text HLabel 8650 2550 2    50   Input ~ 10
IN2
Text HLabel 8650 2650 2    50   Input ~ 10
EN2
Text HLabel 8650 2750 2    50   Input ~ 10
IN3
Text HLabel 8650 2850 2    50   Input ~ 10
EN3
Text HLabel 8650 3350 2    50   Input ~ 10
nSLEEP
Text HLabel 8650 3450 2    50   Input ~ 10
nRESET
Text HLabel 9350 3250 2    50   Input ~ 10
nFAULT
Text HLabel 7150 2600 0    50   Input ~ 10
Motor_Connect1
Text HLabel 7250 2950 0    50   Input ~ 10
Motor_connect2
Text HLabel 7250 3050 0    50   Input ~ 10
Motor_connect3
Text GLabel 6700 3200 0    50   Input ~ 10
Vmotor
Connection ~ 6750 1850
$Comp
L Device:C C7
U 1 1 60CAAB58
P 6450 1800
F 0 "C7" H 6565 1846 50  0000 L CNN
F 1 "C" H 6565 1755 50  0000 L CNN
F 2 "Capacitor_THT:CP_Radial_D4.0mm_P1.50mm" H 6488 1650 50  0001 C CNN
F 3 "~" H 6450 1800 50  0001 C CNN
	1    6450 1800
	1    0    0    -1  
$EndComp
$Comp
L power:GND #PWR04
U 1 1 60CABDAA
P 6450 1950
F 0 "#PWR04" H 6450 1700 50  0001 C CNN
F 1 "GND" H 6455 1777 50  0000 C CNN
F 2 "" H 6450 1950 50  0001 C CNN
F 3 "" H 6450 1950 50  0001 C CNN
	1    6450 1950
	1    0    0    -1  
$EndComp
Wire Wire Line
	6750 1650 6650 1650
Wire Wire Line
	6750 1650 6750 1850
Wire Wire Line
	6650 1600 6650 1650
Connection ~ 6650 1650
Wire Wire Line
	6650 1650 6450 1650
Text GLabel 6650 1600 1    50   Input ~ 10
Vmotor
$Comp
L power:GND #PWR011
U 1 1 60CC1C7E
P 8750 3000
F 0 "#PWR011" H 8750 2750 50  0001 C CNN
F 1 "GND" V 8755 2872 50  0000 R CNN
F 2 "" H 8750 3000 50  0001 C CNN
F 3 "" H 8750 3000 50  0001 C CNN
	1    8750 3000
	0    -1   -1   0   
$EndComp
Connection ~ 8750 3000
Wire Wire Line
	8750 3000 8750 3050
$Comp
L Device:R R8
U 1 1 60CC203A
P 9500 3400
F 0 "R8" H 9570 3446 50  0000 L CNN
F 1 "10k" H 9570 3355 50  0000 L CNN
F 2 "Resistor_THT:R_Axial_DIN0204_L3.6mm_D1.6mm_P1.90mm_Vertical" V 9430 3400 50  0001 C CNN
F 3 "~" H 9500 3400 50  0001 C CNN
	1    9500 3400
	1    0    0    -1  
$EndComp
Wire Wire Line
	9500 3150 9500 3250
Wire Wire Line
	9500 3550 9500 3600
Wire Wire Line
	9500 3600 9200 3600
Connection ~ 9200 3600
Wire Wire Line
	9500 3150 9550 3150
Connection ~ 9500 3150
Text HLabel 9550 3150 2    50   Input ~ 10
nCOMPO
Wire Wire Line
	7150 2750 7150 2850
Wire Wire Line
	7250 3150 7150 3150
Wire Wire Line
	7150 3150 7150 2850
Connection ~ 7150 2850
Wire Wire Line
	7150 3150 7150 3350
Connection ~ 7150 3150
$Comp
L Device:R R5
U 1 1 60CDA754
P 7150 3700
F 0 "R5" H 7220 3746 50  0000 L CNN
F 1 "100m" H 7220 3655 50  0000 L CNN
F 2 "Resistor_THT:R_Axial_DIN0204_L3.6mm_D1.6mm_P1.90mm_Vertical" V 7080 3700 50  0001 C CNN
F 3 "~" H 7150 3700 50  0001 C CNN
	1    7150 3700
	1    0    0    -1  
$EndComp
Wire Wire Line
	7150 3350 7150 3550
Connection ~ 7150 3350
Wire Wire Line
	7250 3550 7250 3850
Wire Wire Line
	7250 3850 7150 3850
Wire Wire Line
	7100 3450 7250 3450
$Comp
L Device:R R4
U 1 1 60CE893F
P 7100 4200
F 0 "R4" H 7170 4246 50  0000 L CNN
F 1 "10k" H 7170 4155 50  0000 L CNN
F 2 "Resistor_THT:R_Axial_DIN0204_L3.6mm_D1.6mm_P1.90mm_Vertical" V 7030 4200 50  0001 C CNN
F 3 "~" H 7100 4200 50  0001 C CNN
	1    7100 4200
	1    0    0    -1  
$EndComp
$Comp
L Device:R R6
U 1 1 60CE9429
P 7450 4250
F 0 "R6" V 7243 4250 50  0000 C CNN
F 1 "10k" V 7334 4250 50  0000 C CNN
F 2 "Resistor_THT:R_Axial_DIN0204_L3.6mm_D1.6mm_P1.90mm_Vertical" V 7380 4250 50  0001 C CNN
F 3 "~" H 7450 4250 50  0001 C CNN
	1    7450 4250
	0    1    1    0   
$EndComp
Wire Wire Line
	7100 3450 7100 4000
Wire Wire Line
	7100 4000 7300 4000
Connection ~ 7100 4000
Wire Wire Line
	7100 4000 7100 4050
Wire Wire Line
	7600 4250 8700 4250
Wire Wire Line
	8700 4250 8700 3550
Connection ~ 8700 3550
Wire Wire Line
	8700 3550 9200 3550
$Comp
L power:GND #PWR07
U 1 1 60CF0F05
P 7100 4350
F 0 "#PWR07" H 7100 4100 50  0001 C CNN
F 1 "GND" H 7105 4177 50  0000 C CNN
F 2 "" H 7100 4350 50  0001 C CNN
F 3 "" H 7100 4350 50  0001 C CNN
	1    7100 4350
	1    0    0    -1  
$EndComp
$Comp
L power:GND #PWR08
U 1 1 60CF10D3
P 7250 3850
F 0 "#PWR08" H 7250 3600 50  0001 C CNN
F 1 "GND" H 7255 3677 50  0000 C CNN
F 2 "" H 7250 3850 50  0001 C CNN
F 3 "" H 7250 3850 50  0001 C CNN
	1    7250 3850
	1    0    0    -1  
$EndComp
Connection ~ 7250 3850
Text GLabel 7150 2700 0    50   Input ~ 10
n_short
Wire Wire Line
	7200 2650 7250 2650
Wire Wire Line
	7200 2650 7200 2600
Wire Wire Line
	7200 2600 7150 2600
Wire Wire Line
	7200 2650 7200 2700
Wire Wire Line
	7200 2700 7150 2700
Connection ~ 7200 2650
Wire Wire Line
	8650 3250 9200 3250
Wire Wire Line
	8650 3150 9500 3150
Wire Wire Line
	7300 4000 7300 4250
$EndSCHEMATC
